{
	"pattrstorage" : 	{
		"name" : "presets.json",
		"slots" : 		{
			"1" : 			{
				"id" : 1,
				"data" : 				{
					"Poly_On_Off_1" : [ 0.99 ],
					"Poly_On_Off_2" : [ 0.99 ],
					"Poly_On_Off_3" : [ 0.99 ],
					"Poly_On_Off_4" : [ 0.99 ],
					"Poly_On_Off_5" : [ 0.99 ],
					"Poly_On_Off_6" : [ 0.99 ],
					"Poly_On_Off_7" : [ 0.99 ],
					"Poly_On_Off_8" : [ 0.99 ],
					"Poly_On_Off_9" : [ 0.99 ],
					"clear_gyro_knob_toggle" : [ 0 ],
					"live.gain~" : [ -70.0 ],
					"live.gain~[1]" : [ -70.0 ],
					"live.gain~[2]" : [ -70.0 ],
					"live.gain~[3]" : [ -70.0 ],
					"live.gain~[4]" : [ -70.0 ],
					"live.gain~[5]" : [ -70.0 ],
					"live.gain~[6]" : [ -70.0 ],
					"sensor_float_1" : [ 0.0 ],
					"sensor_float_2" : [ 0.0 ],
					"sensor_toggle_1" : [ 0 ],
					"sensor_toggle_2" : [ 0 ],
					"sensor_toggle_4" : [ 0 ],
					"sensor_toggle_6" : [ 0 ],
					"tabla_tempo_float" : [ 140.0 ]
				}

			}
,
			"2" : 			{
				"id" : 2,
				"data" : 				{
					"Poly_On_Off_1" : [ 99.0 ],
					"Poly_On_Off_2" : [ 99.0 ],
					"Poly_On_Off_3" : [ 0.99 ],
					"Poly_On_Off_4" : [ 0.99 ],
					"Poly_On_Off_5" : [ 0.99 ],
					"Poly_On_Off_6" : [ 0.99 ],
					"Poly_On_Off_7" : [ 0.99 ],
					"Poly_On_Off_8" : [ 0.99 ],
					"Poly_On_Off_9" : [ 0.99 ],
					"clear_gyro_knob_toggle" : [ 0 ],
					"live.gain~" : [ -0.968098 ],
					"live.gain~[1]" : [ -70.0 ],
					"live.gain~[2]" : [ -70.0 ],
					"live.gain~[3]" : [ -11.757448 ],
					"live.gain~[4]" : [ -70.0 ],
					"live.gain~[5]" : [ -70.0 ],
					"live.gain~[6]" : [ -70.0 ],
					"sensor_float_1" : [ 0.0 ],
					"sensor_float_2" : [ 0.0 ],
					"sensor_toggle_1" : [ 1 ],
					"sensor_toggle_2" : [ 0 ],
					"sensor_toggle_4" : [ 0 ],
					"sensor_toggle_6" : [ 0 ],
					"tabla_tempo_float" : [ 140.0 ]
				}

			}
,
			"3" : 			{
				"id" : 3,
				"data" : 				{
					"Poly_On_Off_1" : [ 99.0 ],
					"Poly_On_Off_2" : [ 99.0 ],
					"Poly_On_Off_3" : [ 0.99 ],
					"Poly_On_Off_4" : [ 0.99 ],
					"Poly_On_Off_5" : [ 0.99 ],
					"Poly_On_Off_6" : [ 0.99 ],
					"Poly_On_Off_7" : [ 0.99 ],
					"Poly_On_Off_8" : [ 0.99 ],
					"Poly_On_Off_9" : [ 0.99 ],
					"clear_gyro_knob_toggle" : [ 1 ],
					"live.gain~" : [ -0.968098 ],
					"live.gain~[1]" : [ -70.0 ],
					"live.gain~[2]" : [ 0.0 ],
					"live.gain~[3]" : [ 0.0 ],
					"live.gain~[4]" : [ -70.0 ],
					"live.gain~[5]" : [ -70.0 ],
					"live.gain~[6]" : [ -70.0 ],
					"sensor_float_1" : [ 0.0 ],
					"sensor_float_2" : [ 500.0 ],
					"sensor_toggle_1" : [ 0 ],
					"sensor_toggle_2" : [ 0 ],
					"sensor_toggle_4" : [ 0 ],
					"sensor_toggle_6" : [ 0 ],
					"tabla_tempo_float" : [ 140.0 ]
				}

			}
,
			"4" : 			{
				"id" : 4,
				"data" : 				{
					"Poly_On_Off_1" : [ 99.0 ],
					"Poly_On_Off_2" : [ 99.0 ],
					"Poly_On_Off_3" : [ 99.0 ],
					"Poly_On_Off_4" : [ 0.99 ],
					"Poly_On_Off_5" : [ 0.99 ],
					"Poly_On_Off_6" : [ 0.99 ],
					"Poly_On_Off_7" : [ 0.99 ],
					"Poly_On_Off_8" : [ 0.99 ],
					"Poly_On_Off_9" : [ 0.99 ],
					"clear_gyro_knob_toggle" : [ 1 ],
					"live.gain~" : [ -0.968098 ],
					"live.gain~[1]" : [ -70.0 ],
					"live.gain~[2]" : [ -4.4 ],
					"live.gain~[3]" : [ -8.307817 ],
					"live.gain~[4]" : [ -70.0 ],
					"live.gain~[5]" : [ -70.0 ],
					"live.gain~[6]" : [ -70.0 ],
					"sensor_float_1" : [ 0.0 ],
					"sensor_float_2" : [ 500.0 ],
					"sensor_toggle_1" : [ 0 ],
					"sensor_toggle_2" : [ 0 ],
					"sensor_toggle_4" : [ 0 ],
					"sensor_toggle_6" : [ 0 ],
					"tabla_tempo_float" : [ 140.0 ]
				}

			}
,
			"5" : 			{
				"id" : 5,
				"data" : 				{
					"Poly_On_Off_1" : [ 99.0 ],
					"Poly_On_Off_2" : [ 99.0 ],
					"Poly_On_Off_3" : [ 99.0 ],
					"Poly_On_Off_4" : [ 0.99 ],
					"Poly_On_Off_5" : [ 0.99 ],
					"Poly_On_Off_6" : [ 0.99 ],
					"Poly_On_Off_7" : [ 0.99 ],
					"Poly_On_Off_8" : [ 0.99 ],
					"Poly_On_Off_9" : [ 0.99 ],
					"clear_gyro_knob_toggle" : [ 1 ],
					"live.gain~" : [ -1.0 ],
					"live.gain~[1]" : [ -70.0 ],
					"live.gain~[2]" : [ -4.4 ],
					"live.gain~[3]" : [ -8.307817 ],
					"live.gain~[4]" : [ -70.0 ],
					"live.gain~[5]" : [ -70.0 ],
					"live.gain~[6]" : [ -70.0 ],
					"sensor_float_1" : [ 0.0 ],
					"sensor_float_2" : [ 0.0 ],
					"sensor_toggle_1" : [ 0 ],
					"sensor_toggle_2" : [ 0 ],
					"sensor_toggle_4" : [ 0 ],
					"sensor_toggle_6" : [ 0 ],
					"tabla_tempo_float" : [ 140.0 ]
				}

			}
,
			"6" : 			{
				"id" : 6,
				"data" : 				{
					"Poly_On_Off_1" : [ 0.99 ],
					"Poly_On_Off_2" : [ 99.0 ],
					"Poly_On_Off_3" : [ 99.0 ],
					"Poly_On_Off_4" : [ 0.99 ],
					"Poly_On_Off_5" : [ 0.99 ],
					"Poly_On_Off_6" : [ 0.99 ],
					"Poly_On_Off_7" : [ 0.99 ],
					"Poly_On_Off_8" : [ 0.99 ],
					"Poly_On_Off_9" : [ 0.99 ],
					"clear_gyro_knob_toggle" : [ 1 ],
					"live.gain~" : [ -70.0 ],
					"live.gain~[1]" : [ -3.0 ],
					"live.gain~[2]" : [ -4.4 ],
					"live.gain~[3]" : [ -18.07598 ],
					"live.gain~[4]" : [ -70.0 ],
					"live.gain~[5]" : [ -70.0 ],
					"live.gain~[6]" : [ -70.0 ],
					"sensor_float_1" : [ 0.0 ],
					"sensor_float_2" : [ 0.0 ],
					"sensor_toggle_1" : [ 0 ],
					"sensor_toggle_2" : [ 0 ],
					"sensor_toggle_4" : [ 0 ],
					"sensor_toggle_6" : [ 0 ],
					"tabla_tempo_float" : [ 70.0 ]
				}

			}
,
			"7" : 			{
				"id" : 7,
				"data" : 				{
					"Poly_On_Off_1" : [ 0.99 ],
					"Poly_On_Off_2" : [ 99.0 ],
					"Poly_On_Off_3" : [ 99.0 ],
					"Poly_On_Off_4" : [ 0.99 ],
					"Poly_On_Off_5" : [ 0.99 ],
					"Poly_On_Off_6" : [ 0.99 ],
					"Poly_On_Off_7" : [ 0.99 ],
					"Poly_On_Off_8" : [ 0.99 ],
					"Poly_On_Off_9" : [ 0.99 ],
					"clear_gyro_knob_toggle" : [ 1 ],
					"live.gain~" : [ -0.968098 ],
					"live.gain~[1]" : [ -3.0 ],
					"live.gain~[2]" : [ -6.0 ],
					"live.gain~[3]" : [ -17.884514 ],
					"live.gain~[4]" : [ -5.914116 ],
					"live.gain~[5]" : [ -70.0 ],
					"live.gain~[6]" : [ -70.0 ],
					"sensor_float_1" : [ 0.0 ],
					"sensor_float_2" : [ 0.0 ],
					"sensor_toggle_1" : [ 0 ],
					"sensor_toggle_2" : [ 1 ],
					"sensor_toggle_4" : [ 0 ],
					"sensor_toggle_6" : [ 0 ],
					"tabla_tempo_float" : [ 70.0 ]
				}

			}
,
			"8" : 			{
				"id" : 8,
				"data" : 				{
					"Poly_On_Off_1" : [ 0.99 ],
					"Poly_On_Off_2" : [ 99.0 ],
					"Poly_On_Off_3" : [ 99.0 ],
					"Poly_On_Off_4" : [ 99.0 ],
					"Poly_On_Off_5" : [ 0.99 ],
					"Poly_On_Off_6" : [ 0.99 ],
					"Poly_On_Off_7" : [ 99.0 ],
					"Poly_On_Off_8" : [ 0.99 ],
					"Poly_On_Off_9" : [ 0.99 ],
					"clear_gyro_knob_toggle" : [ 1 ],
					"live.gain~" : [ -0.968098 ],
					"live.gain~[1]" : [ -18.146765 ],
					"live.gain~[2]" : [ -17.530644 ],
					"live.gain~[3]" : [ -17.884514 ],
					"live.gain~[4]" : [ 0.0 ],
					"live.gain~[5]" : [ -70.0 ],
					"live.gain~[6]" : [ -70.0 ],
					"sensor_float_1" : [ 0.0 ],
					"sensor_float_2" : [ 0.0 ],
					"sensor_toggle_1" : [ 0 ],
					"sensor_toggle_2" : [ 0 ],
					"sensor_toggle_4" : [ 0 ],
					"sensor_toggle_6" : [ 0 ],
					"tabla_tempo_float" : [ 70.0 ]
				}

			}
,
			"9" : 			{
				"id" : 9,
				"data" : 				{
					"Poly_On_Off_1" : [ 0.99 ],
					"Poly_On_Off_2" : [ 99.0 ],
					"Poly_On_Off_3" : [ 99.0 ],
					"Poly_On_Off_4" : [ 99.0 ],
					"Poly_On_Off_5" : [ 99.0 ],
					"Poly_On_Off_6" : [ 99.0 ],
					"Poly_On_Off_7" : [ 99.0 ],
					"Poly_On_Off_8" : [ 99.0 ],
					"Poly_On_Off_9" : [ 99.0 ],
					"clear_gyro_knob_toggle" : [ 1 ],
					"live.gain~" : [ -0.968098 ],
					"live.gain~[1]" : [ -18.146765 ],
					"live.gain~[2]" : [ -17.530644 ],
					"live.gain~[3]" : [ -17.884514 ],
					"live.gain~[4]" : [ 0.0 ],
					"live.gain~[5]" : [ -4.0 ],
					"live.gain~[6]" : [ -4.0 ],
					"sensor_float_1" : [ 0.0 ],
					"sensor_float_2" : [ 0.0 ],
					"sensor_toggle_1" : [ 0 ],
					"sensor_toggle_2" : [ 0 ],
					"sensor_toggle_4" : [ 1 ],
					"sensor_toggle_6" : [ 1 ],
					"tabla_tempo_float" : [ 70.0 ]
				}

			}
,
			"10" : 			{
				"id" : 10,
				"data" : 				{
					"Poly_On_Off_1" : [ 0.99 ],
					"Poly_On_Off_2" : [ 99.0 ],
					"Poly_On_Off_3" : [ 99.0 ],
					"Poly_On_Off_4" : [ 99.0 ],
					"Poly_On_Off_5" : [ 99.0 ],
					"Poly_On_Off_6" : [ 99.0 ],
					"Poly_On_Off_7" : [ -999.0 ],
					"Poly_On_Off_8" : [ -999.0 ],
					"Poly_On_Off_9" : [ -999.0 ],
					"clear_gyro_knob_toggle" : [ 1 ],
					"live.gain~" : [ -0.968098 ],
					"live.gain~[1]" : [ -3.0 ],
					"live.gain~[2]" : [ -1.038883 ],
					"live.gain~[3]" : [ -10.367238 ],
					"live.gain~[4]" : [ 0.0 ],
					"live.gain~[5]" : [ -2.0 ],
					"live.gain~[6]" : [ -2.0 ],
					"sensor_float_1" : [ 0.0 ],
					"sensor_float_2" : [ 0.0 ],
					"sensor_toggle_1" : [ 0 ],
					"sensor_toggle_2" : [ 1 ],
					"sensor_toggle_4" : [ 0 ],
					"sensor_toggle_6" : [ 0 ],
					"tabla_tempo_float" : [ 70.0 ]
				}

			}
,
			"11" : 			{
				"id" : 11,
				"data" : 				{
					"Poly_On_Off_1" : [ 0.99 ],
					"Poly_On_Off_2" : [ 99.0 ],
					"Poly_On_Off_3" : [ 99.0 ],
					"Poly_On_Off_4" : [ 99.0 ],
					"Poly_On_Off_5" : [ 99.0 ],
					"Poly_On_Off_6" : [ 99.0 ],
					"Poly_On_Off_7" : [ -999.0 ],
					"Poly_On_Off_8" : [ -999.0 ],
					"Poly_On_Off_9" : [ -999.0 ],
					"clear_gyro_knob_toggle" : [ 1 ],
					"live.gain~" : [ -0.968098 ],
					"live.gain~[1]" : [ -18.146765 ],
					"live.gain~[2]" : [ -70.0 ],
					"live.gain~[3]" : [ -10.367238 ],
					"live.gain~[4]" : [ 0.0 ],
					"live.gain~[5]" : [ -2.0 ],
					"live.gain~[6]" : [ -2.0 ],
					"sensor_float_1" : [ 0.0 ],
					"sensor_float_2" : [ 0.0 ],
					"sensor_toggle_1" : [ 0 ],
					"sensor_toggle_2" : [ 1 ],
					"sensor_toggle_4" : [ 1 ],
					"sensor_toggle_6" : [ 1 ],
					"tabla_tempo_float" : [ 70.0 ]
				}

			}
,
			"12" : 			{
				"id" : 12,
				"data" : 				{
					"Poly_On_Off_1" : [ 0.99 ],
					"Poly_On_Off_2" : [ 99.0 ],
					"Poly_On_Off_3" : [ 99.0 ],
					"Poly_On_Off_4" : [ 99.0 ],
					"Poly_On_Off_5" : [ 99.0 ],
					"Poly_On_Off_6" : [ 99.0 ],
					"Poly_On_Off_7" : [ -999.0 ],
					"Poly_On_Off_8" : [ -999.0 ],
					"Poly_On_Off_9" : [ -999.0 ],
					"clear_gyro_knob_toggle" : [ 1 ],
					"live.gain~" : [ -0.968098 ],
					"live.gain~[1]" : [ -18.146765 ],
					"live.gain~[2]" : [ -70.0 ],
					"live.gain~[3]" : [ -70.0 ],
					"live.gain~[4]" : [ 0.0 ],
					"live.gain~[5]" : [ -2.0 ],
					"live.gain~[6]" : [ -2.0 ],
					"sensor_float_1" : [ 0.0 ],
					"sensor_float_2" : [ 0.0 ],
					"sensor_toggle_1" : [ 0 ],
					"sensor_toggle_2" : [ 1 ],
					"sensor_toggle_4" : [ 1 ],
					"sensor_toggle_6" : [ 1 ],
					"tabla_tempo_float" : [ 70.0 ]
				}

			}

		}

	}

}
